{
  "name": "userdetails",
  "base": "PersistedModel",
  "idInjection": true,
  "options": {
    "validateUpsert": true
  },
  "properties": {
    "mobileno": {
      "type": "number",
      "required": true
    },
    "otp": {
      "type": "number",
      "required": true
    },
    "name": {
      "type": "string"
    }
  },
  "validations": [],
  "relations": {},
  "acls": [],
  "methods": {}
}
